'Considera el diagrama de classes de l'exercici anterior.
'Nota que les classes Part, Capítol i Secció totes inclouen
'els atributs de títol i número. Afegeix una classe abstracta
'i una relació de generalització per trapassar aquests dos
'atributs a la classe abstracta.


@startuml

abstract class titolNumero {
+{abstract} titol: String
+{abstract} numero: Integer
}
Parts <|-- titolNumero
Capitols <|-- titolNumero
Seccions <|-- titolNumero

class Llibre{
editor: String
dataPublicacio: Date
ISBN: Integer
}
class Parts{
}
class Capitols{
resum: String
}
class Seccions{

}
Llibre *- Parts
Parts *- Capitols
Capitols *- Seccions

@enduml
