

@startuml
[o-> Jardi:temps()
activate Jardi
Jardi -> Altibus:temps()
activate Altibus
Altibus -> Planta:temps()
activate Planta
Altibus <-- Planta:null
deactivate Planta
Altibus -->> Altibus2:new Altibus()
activate Altibus2
Altibus <-- Altibus2:altibus2
deactivate Altibus2
Altibus -->> Llavor:new Llavor(altibus2)
activate Llavor
Altibus <-- Llavor:llavor
deactivate Llavor
Jardi <-- Altibus:llavor
deactivate Altibus
Jardi -> Planta:isViva()
activate Planta
Jardi <-- Planta:true
deactivate Planta
Jardi -> Planta:escampa()
activate Planta
Jardi <-- Planta:posicio
deactivate Planta
Jardi -> Jardi:posaElement()
activate Jardi
Jardi <-- Jardi:true
deactivate Jardi
[<-- Jardi
deactivate Jardi
[o-> Jardi:toString()
activate Jardi
Jardi -> Altibus:getChar()
activate Altibus
Jardi <-- Altibus:O
deactivate Altibus
[<-- Jardi:O
deactivate Jardi
@enduml

2. Per a l'exercici del jardí, fes un diagrama de seqüència que mostri
els participants i els missatges que es realitzen en un dels *frames*.
Modelitza només l'accés a una de les posicions del jardí, i suposa
que en aquesta posició hi ha un *Altibus* d'alçada 8.
